\select@language {italian}
\select@language {italian}
\contentsline {chapter}{Introduzione}{1}{chapter*.4}
\contentsline {chapter}{\numberline {1}Lavoro eseguito con R}{3}{chapter.1}
\contentsline {section}{\numberline {1.1}Caricamento Dati}{3}{section.1.1}
\contentsline {section}{\numberline {1.2}Struttura dell'oggetto data, nomi e informazioni sulle variabili}{4}{section.1.2}
\contentsline {section}{\numberline {1.3}Analisi delle spese}{4}{section.1.3}
\contentsline {section}{\numberline {1.4}Spesa minima e massima}{5}{section.1.4}
\contentsline {section}{\numberline {1.5}Andamento dei valori e grafici}{6}{section.1.5}
\contentsline {chapter}{\numberline {2}Progetto173.rmd}{8}{chapter.2}
\contentsline {section}{\numberline {2.1}Descrizione del lavoro}{8}{section.2.1}
\contentsline {chapter}{\numberline {3}Progetto173.Rpres}{10}{chapter.3}
\contentsline {section}{\numberline {3.1}Descrizione del lavoro}{10}{section.3.1}
\contentsline {chapter}{\numberline {4}Progetto173shiny.rmd}{12}{chapter.4}
\contentsline {section}{\numberline {4.1}Descrizione del lavoro}{12}{section.4.1}
\contentsline {chapter}{\numberline {A}appendice1}{14}{appendix.Alph1}
\contentsline {section}{\numberline {A.1}Comandi excel}{14}{section.Alph1.1}
\contentsline {section}{\numberline {A.2}Grafici excel}{15}{section.Alph1.2}
\contentsline {chapter}{Bibliografia}{17}{section.Alph1.2}
