\relax 
\providecommand\hyper@newdestlabel[2]{}
\providecommand\HyperFirstAtBeginDocument{\AtBeginDocument}
\HyperFirstAtBeginDocument{\ifx\hyper@anchor\@undefined
\global\let\oldcontentsline\contentsline
\gdef\contentsline#1#2#3#4{\oldcontentsline{#1}{#2}{#3}}
\global\let\oldnewlabel\newlabel
\gdef\newlabel#1#2{\newlabelxx{#1}#2}
\gdef\newlabelxx#1#2#3#4#5#6{\oldnewlabel{#1}{{#2}{#3}}}
\AtEndDocument{\ifx\hyper@anchor\@undefined
\let\contentsline\oldcontentsline
\let\newlabel\oldnewlabel
\fi}
\fi}
\global\let\hyper@last\relax 
\gdef\HyperFirstAtBeginDocument#1{#1}
\providecommand\HyField@AuxAddToFields[1]{}
\providecommand\HyField@AuxAddToCoFields[2]{}
\select@language{italian}
\@writefile{toc}{\select@language{italian}}
\@writefile{lof}{\select@language{italian}}
\@writefile{lot}{\select@language{italian}}
\select@language{italian}
\@writefile{toc}{\select@language{italian}}
\@writefile{lof}{\select@language{italian}}
\@writefile{lot}{\select@language{italian}}
\citation{opendatahub}
\@writefile{toc}{\contentsline {chapter}{Introduzione}{1}{chapter*.4}}
\@writefile{toc}{\contentsline {chapter}{\numberline {1}Lavoro eseguito con R}{3}{chapter.1}}
\@writefile{lof}{\addvspace {10\p@ }}
\@writefile{lot}{\addvspace {10\p@ }}
\@writefile{toc}{\contentsline {section}{\numberline {1.1}Caricamento Dati}{3}{section.1.1}}
\@writefile{lot}{\contentsline {table}{\numberline {1.1}{\ignorespaces Tabella delle spese }}{3}{table.1.1}}
\newlabel{tabdata}{{1.1}{3}{Tabella delle spese}{table.1.1}{}}
\@writefile{toc}{\contentsline {section}{\numberline {1.2}Struttura dell'oggetto data, nomi e informazioni sulle variabili}{4}{section.1.2}}
\@writefile{toc}{\contentsline {section}{\numberline {1.3}Analisi delle spese}{4}{section.1.3}}
\@writefile{toc}{\contentsline {section}{\numberline {1.4}Spesa minima e massima}{5}{section.1.4}}
\@writefile{toc}{\contentsline {section}{\numberline {1.5}Andamento dei valori e grafici}{6}{section.1.5}}
\@writefile{toc}{\contentsline {chapter}{\numberline {2}Progetto173.rmd}{8}{chapter.2}}
\@writefile{lof}{\addvspace {10\p@ }}
\@writefile{lot}{\addvspace {10\p@ }}
\@writefile{toc}{\contentsline {section}{\numberline {2.1}Descrizione del lavoro}{8}{section.2.1}}
\@writefile{toc}{\contentsline {chapter}{\numberline {3}Progetto173.Rpres}{10}{chapter.3}}
\@writefile{lof}{\addvspace {10\p@ }}
\@writefile{lot}{\addvspace {10\p@ }}
\@writefile{toc}{\contentsline {section}{\numberline {3.1}Descrizione del lavoro}{10}{section.3.1}}
\@writefile{toc}{\contentsline {chapter}{\numberline {4}Progetto173shiny.rmd}{12}{chapter.4}}
\@writefile{lof}{\addvspace {10\p@ }}
\@writefile{lot}{\addvspace {10\p@ }}
\@writefile{toc}{\contentsline {section}{\numberline {4.1}Descrizione del lavoro}{12}{section.4.1}}
\@writefile{toc}{\contentsline {chapter}{\numberline {A}appendice1}{14}{appendix.Alph1}}
\@writefile{lof}{\addvspace {10\p@ }}
\@writefile{lot}{\addvspace {10\p@ }}
\@writefile{toc}{\contentsline {section}{\numberline {A.1}Comandi excel}{14}{section.Alph1.1}}
\@writefile{toc}{\contentsline {section}{\numberline {A.2}Grafici excel}{15}{section.Alph1.2}}
\bibstyle{abbrv}
\bibdata{public}
\bibcite{opendatahub}{1}
\bibcite{cv1}{2}
\bibcite{btxdoc}{3}
\bibcite{sql}{4}
\@writefile{toc}{\contentsline {chapter}{Bibliografia}{17}{section.Alph1.2}}
